A Statistical Analysis of Gender Inequality in the Film Industry
…
A Statistical Analysis of Gender Inequality in the Film Industry

Chris Brodsky

## # A tibble: 100 x 4
##    name              gender number_acting_projects academy_award_noms
##    <chr>             <chr>                   <int>              <int>
##  1 Leonardo DiCaprio male                       42                  5
##  2 Tom Hanks         male                       87                  5
##  3 Meryl Streep      female                     81                 21
##  4 Denzel Washington male                       56                  8
##  5 Morgan Freeman    male                      122                  5
##  6 Sean Penn         male                       65                  5
##  7 Christian Bale    male                       51                  3
##  8 Robert DeNiro     male                      113                  7
##  9 Jennifer Lawrence female                     30                  4
## 10 Cate Blanchett    female                     69                  6
## # ... with 90 more rows
…
